%YAML 1.1
%TAG !u! tag:unity3d.com,2011:
--- !u!221 &22100000
AnimatorOverrideController:
  m_ObjectHideFlags: 0
  m_CorrespondingSourceObject: {fileID: 0}
  m_PrefabInstance: {fileID: 0}
  m_PrefabAsset: {fileID: 0}
  m_Name: VengefulAI
  m_Controller: {fileID: 9100000, guid: 1d37de73a8595294484d71ae44456222, type: 2}
  m_Clips:
  - m_OriginalClip: {fileID: 7400000, guid: 6019f1b4a095b0b4396f5561a51fee89, type: 2}
    m_OverrideClip: {fileID: 7400000, guid: 6019f1b4a095b0b4396f5561a51fee89, type: 2}
  - m_OriginalClip: {fileID: 7400000, guid: eccbae3cfc77ad245ade46e143aa3200, type: 2}
    m_OverrideClip: {fileID: 7400000, guid: eccbae3cfc77ad245ade46e143aa3200, type: 2}
  - m_OriginalClip: {fileID: 7400000, guid: 9f0e03164414016409d28995a128ba98, type: 2}
    m_OverrideClip: {fileID: 7400000, guid: 9f0e03164414016409d28995a128ba98, type: 2}
  - m_OriginalClip: {fileID: 7400000, guid: b79ff7bb68348be479d3db6b7fe8a569, type: 2}
    m_OverrideClip: {fileID: 7400000, guid: b79ff7bb68348be479d3db6b7fe8a569, type: 2}
