%YAML 1.1
%TAG !u! tag:unity3d.com,2011:
--- !u!1001 &2790239857954411210
PrefabInstance:
  m_ObjectHideFlags: 0
  serializedVersion: 2
  m_Modification:
    m_TransformParent: {fileID: 0}
    m_Modifications:
    - target: {fileID: 256061593, guid: 50e563aeac1114b419ff79ba0312f04c, type: 3}
      propertyPath: m_Center.y
      value: 2.143424
      objectReference: {fileID: 0}
    - target: {fileID: 256061593, guid: 50e563aeac1114b419ff79ba0312f04c, type: 3}
      propertyPath: m_Radius
      value: 1.4024988
      objectReference: {fileID: 0}
    - target: {fileID: 256061593, guid: 50e563aeac1114b419ff79ba0312f04c, type: 3}
      propertyPath: m_Height
      value: 4.326282
      objectReference: {fileID: 0}
    - target: {fileID: 256061594, guid: 50e563aeac1114b419ff79ba0312f04c, type: 3}
      propertyPath: damage
      value: 40
      objectReference: {fileID: 0}
    - target: {fileID: 256061596, guid: 50e563aeac1114b419ff79ba0312f04c, type: 3}
      propertyPath: maxHp
      value: 700
      objectReference: {fileID: 0}
    - target: {fileID: 1049422955827633086, guid: 50e563aeac1114b419ff79ba0312f04c, type: 3}
      propertyPath: damage
      value: 40
      objectReference: {fileID: 0}
    - target: {fileID: 1049422955827633086, guid: 50e563aeac1114b419ff79ba0312f04c, type: 3}
      propertyPath: maxHealth
      value: 700
      objectReference: {fileID: 0}
    - target: {fileID: 3182912904865640949, guid: 50e563aeac1114b419ff79ba0312f04c, type: 3}
      propertyPath: m_AnchoredPosition.y
      value: 3.79
      objectReference: {fileID: 0}
    - target: {fileID: 6214091415691579099, guid: 50e563aeac1114b419ff79ba0312f04c, type: 3}
      propertyPath: m_LocalPosition.x
      value: 0
      objectReference: {fileID: 0}
    - target: {fileID: 6214091415930848425, guid: 50e563aeac1114b419ff79ba0312f04c, type: 3}
      propertyPath: scalingValues
      value: 
      objectReference: {fileID: 11400000, guid: 66b5881be2828274f8f0d873bb2b9684, type: 2}
    - target: {fileID: 6214091416311166179, guid: 50e563aeac1114b419ff79ba0312f04c, type: 3}
      propertyPath: m_Name
      value: RadiantMeleeCreep Super Variant
      objectReference: {fileID: 0}
    - target: {fileID: 6214091416311166189, guid: 50e563aeac1114b419ff79ba0312f04c, type: 3}
      propertyPath: m_LocalPosition.x
      value: 0
      objectReference: {fileID: 0}
    - target: {fileID: 6214091416311166189, guid: 50e563aeac1114b419ff79ba0312f04c, type: 3}
      propertyPath: m_LocalPosition.y
      value: 0
      objectReference: {fileID: 0}
    - target: {fileID: 6214091416311166189, guid: 50e563aeac1114b419ff79ba0312f04c, type: 3}
      propertyPath: m_LocalPosition.z
      value: 0
      objectReference: {fileID: 0}
    - target: {fileID: 6214091416311166189, guid: 50e563aeac1114b419ff79ba0312f04c, type: 3}
      propertyPath: m_LocalRotation.x
      value: 0
      objectReference: {fileID: 0}
    - target: {fileID: 6214091416311166189, guid: 50e563aeac1114b419ff79ba0312f04c, type: 3}
      propertyPath: m_LocalRotation.y
      value: 0
      objectReference: {fileID: 0}
    - target: {fileID: 6214091416311166189, guid: 50e563aeac1114b419ff79ba0312f04c, type: 3}
      propertyPath: m_LocalRotation.z
      value: 0
      objectReference: {fileID: 0}
    - target: {fileID: 6214091416311166189, guid: 50e563aeac1114b419ff79ba0312f04c, type: 3}
      propertyPath: m_LocalRotation.w
      value: 1
      objectReference: {fileID: 0}
    - target: {fileID: 6214091416311166189, guid: 50e563aeac1114b419ff79ba0312f04c, type: 3}
      propertyPath: m_RootOrder
      value: 0
      objectReference: {fileID: 0}
    - target: {fileID: 6214091416311166189, guid: 50e563aeac1114b419ff79ba0312f04c, type: 3}
      propertyPath: m_LocalEulerAnglesHint.x
      value: 0
      objectReference: {fileID: 0}
    - target: {fileID: 6214091416311166189, guid: 50e563aeac1114b419ff79ba0312f04c, type: 3}
      propertyPath: m_LocalEulerAnglesHint.y
      value: 0
      objectReference: {fileID: 0}
    - target: {fileID: 6214091416311166189, guid: 50e563aeac1114b419ff79ba0312f04c, type: 3}
      propertyPath: m_LocalEulerAnglesHint.z
      value: 0
      objectReference: {fileID: 0}
    - target: {fileID: 6214091416311166189, guid: 50e563aeac1114b419ff79ba0312f04c, type: 3}
      propertyPath: m_LocalScale.x
      value: 1
      objectReference: {fileID: 0}
    - target: {fileID: 6214091416311166189, guid: 50e563aeac1114b419ff79ba0312f04c, type: 3}
      propertyPath: m_LocalScale.y
      value: 1
      objectReference: {fileID: 0}
    - target: {fileID: 6214091416311166189, guid: 50e563aeac1114b419ff79ba0312f04c, type: 3}
      propertyPath: m_LocalScale.z
      value: 1
      objectReference: {fileID: 0}
    - target: {fileID: 6214091416799561694, guid: 50e563aeac1114b419ff79ba0312f04c, type: 3}
      propertyPath: m_LocalScale.x
      value: 0.02
      objectReference: {fileID: 0}
    - target: {fileID: 6214091416799561694, guid: 50e563aeac1114b419ff79ba0312f04c, type: 3}
      propertyPath: m_LocalScale.y
      value: 0.02
      objectReference: {fileID: 0}
    - target: {fileID: 6214091416799561694, guid: 50e563aeac1114b419ff79ba0312f04c, type: 3}
      propertyPath: m_LocalScale.z
      value: 0.02
      objectReference: {fileID: 0}
    m_RemovedComponents: []
  m_SourcePrefab: {fileID: 100100000, guid: 50e563aeac1114b419ff79ba0312f04c, type: 3}
