%YAML 1.1
%TAG !u! tag:unity3d.com,2011:
--- !u!1001 &7153763189808488149
PrefabInstance:
  m_ObjectHideFlags: 0
  serializedVersion: 2
  m_Modification:
    m_TransformParent: {fileID: 0}
    m_Modifications:
    - target: {fileID: 256061593, guid: 4979dcc83c2765643856c4abeb960aa6, type: 3}
      propertyPath: m_Radius
      value: 1.4024988
      objectReference: {fileID: 0}
    - target: {fileID: 256061593, guid: 4979dcc83c2765643856c4abeb960aa6, type: 3}
      propertyPath: m_Height
      value: 4.326282
      objectReference: {fileID: 0}
    - target: {fileID: 256061593, guid: 4979dcc83c2765643856c4abeb960aa6, type: 3}
      propertyPath: m_Center.y
      value: 2.143424
      objectReference: {fileID: 0}
    - target: {fileID: 256061594, guid: 4979dcc83c2765643856c4abeb960aa6, type: 3}
      propertyPath: damage
      value: 44
      objectReference: {fileID: 0}
    - target: {fileID: 256061596, guid: 4979dcc83c2765643856c4abeb960aa6, type: 3}
      propertyPath: maxHp
      value: 475
      objectReference: {fileID: 0}
    - target: {fileID: 1113752498976175434, guid: 4979dcc83c2765643856c4abeb960aa6, type: 3}
      propertyPath: maxHealth
      value: 475
      objectReference: {fileID: 0}
    - target: {fileID: 1113752498976175434, guid: 4979dcc83c2765643856c4abeb960aa6, type: 3}
      propertyPath: damage
      value: 44
      objectReference: {fileID: 0}
    - target: {fileID: 3182912904865640949, guid: 4979dcc83c2765643856c4abeb960aa6, type: 3}
      propertyPath: m_AnchoredPosition.y
      value: 3.84
      objectReference: {fileID: 0}
    - target: {fileID: 6214091415930848425, guid: 4979dcc83c2765643856c4abeb960aa6, type: 3}
      propertyPath: scalingValues
      value: 
      objectReference: {fileID: 11400000, guid: 85f61260fabc8d241bb42272d8f91bff, type: 2}
    - target: {fileID: 6214091416311166179, guid: 4979dcc83c2765643856c4abeb960aa6, type: 3}
      propertyPath: m_Name
      value: RadiantRangedCreep Super Variant
      objectReference: {fileID: 0}
    - target: {fileID: 6214091416311166189, guid: 4979dcc83c2765643856c4abeb960aa6, type: 3}
      propertyPath: m_LocalPosition.x
      value: 0
      objectReference: {fileID: 0}
    - target: {fileID: 6214091416311166189, guid: 4979dcc83c2765643856c4abeb960aa6, type: 3}
      propertyPath: m_LocalPosition.y
      value: 0
      objectReference: {fileID: 0}
    - target: {fileID: 6214091416311166189, guid: 4979dcc83c2765643856c4abeb960aa6, type: 3}
      propertyPath: m_LocalPosition.z
      value: 0
      objectReference: {fileID: 0}
    - target: {fileID: 6214091416311166189, guid: 4979dcc83c2765643856c4abeb960aa6, type: 3}
      propertyPath: m_LocalRotation.x
      value: 0
      objectReference: {fileID: 0}
    - target: {fileID: 6214091416311166189, guid: 4979dcc83c2765643856c4abeb960aa6, type: 3}
      propertyPath: m_LocalRotation.y
      value: 0
      objectReference: {fileID: 0}
    - target: {fileID: 6214091416311166189, guid: 4979dcc83c2765643856c4abeb960aa6, type: 3}
      propertyPath: m_LocalRotation.z
      value: 0
      objectReference: {fileID: 0}
    - target: {fileID: 6214091416311166189, guid: 4979dcc83c2765643856c4abeb960aa6, type: 3}
      propertyPath: m_LocalRotation.w
      value: 1
      objectReference: {fileID: 0}
    - target: {fileID: 6214091416311166189, guid: 4979dcc83c2765643856c4abeb960aa6, type: 3}
      propertyPath: m_RootOrder
      value: 0
      objectReference: {fileID: 0}
    - target: {fileID: 6214091416311166189, guid: 4979dcc83c2765643856c4abeb960aa6, type: 3}
      propertyPath: m_LocalEulerAnglesHint.x
      value: 0
      objectReference: {fileID: 0}
    - target: {fileID: 6214091416311166189, guid: 4979dcc83c2765643856c4abeb960aa6, type: 3}
      propertyPath: m_LocalEulerAnglesHint.y
      value: 0
      objectReference: {fileID: 0}
    - target: {fileID: 6214091416311166189, guid: 4979dcc83c2765643856c4abeb960aa6, type: 3}
      propertyPath: m_LocalEulerAnglesHint.z
      value: 0
      objectReference: {fileID: 0}
    - target: {fileID: 6214091416311166189, guid: 4979dcc83c2765643856c4abeb960aa6, type: 3}
      propertyPath: m_LocalScale.x
      value: 1
      objectReference: {fileID: 0}
    - target: {fileID: 6214091416311166189, guid: 4979dcc83c2765643856c4abeb960aa6, type: 3}
      propertyPath: m_LocalScale.y
      value: 1
      objectReference: {fileID: 0}
    - target: {fileID: 6214091416311166189, guid: 4979dcc83c2765643856c4abeb960aa6, type: 3}
      propertyPath: m_LocalScale.z
      value: 1
      objectReference: {fileID: 0}
    - target: {fileID: 6214091416799561694, guid: 4979dcc83c2765643856c4abeb960aa6, type: 3}
      propertyPath: m_LocalScale.x
      value: 0.02
      objectReference: {fileID: 0}
    - target: {fileID: 6214091416799561694, guid: 4979dcc83c2765643856c4abeb960aa6, type: 3}
      propertyPath: m_LocalScale.y
      value: 0.02
      objectReference: {fileID: 0}
    - target: {fileID: 6214091416799561694, guid: 4979dcc83c2765643856c4abeb960aa6, type: 3}
      propertyPath: m_LocalScale.z
      value: 0.02
      objectReference: {fileID: 0}
    - target: {fileID: 7636562857672409274, guid: 4979dcc83c2765643856c4abeb960aa6, type: 3}
      propertyPath: m_LocalScale.x
      value: 160
      objectReference: {fileID: 0}
    - target: {fileID: 7636562857672409274, guid: 4979dcc83c2765643856c4abeb960aa6, type: 3}
      propertyPath: m_LocalScale.y
      value: 160
      objectReference: {fileID: 0}
    - target: {fileID: 7636562857672409274, guid: 4979dcc83c2765643856c4abeb960aa6, type: 3}
      propertyPath: m_LocalScale.z
      value: 160
      objectReference: {fileID: 0}
    - target: {fileID: 7636562857672409274, guid: 4979dcc83c2765643856c4abeb960aa6, type: 3}
      propertyPath: m_LocalPosition.y
      value: 2.45
      objectReference: {fileID: 0}
    - target: {fileID: 7636562857672409274, guid: 4979dcc83c2765643856c4abeb960aa6, type: 3}
      propertyPath: m_LocalPosition.z
      value: 1.33
      objectReference: {fileID: 0}
    - target: {fileID: 7636562857672409274, guid: 4979dcc83c2765643856c4abeb960aa6, type: 3}
      propertyPath: m_LocalPosition.x
      value: 1.94
      objectReference: {fileID: 0}
    - target: {fileID: 7636562857672409274, guid: 4979dcc83c2765643856c4abeb960aa6, type: 3}
      propertyPath: m_LocalRotation.x
      value: 0.13990794
      objectReference: {fileID: 0}
    - target: {fileID: 7636562857672409274, guid: 4979dcc83c2765643856c4abeb960aa6, type: 3}
      propertyPath: m_LocalRotation.y
      value: 0.012737555
      objectReference: {fileID: 0}
    - target: {fileID: 7636562857672409274, guid: 4979dcc83c2765643856c4abeb960aa6, type: 3}
      propertyPath: m_LocalRotation.z
      value: -0.08976824
      objectReference: {fileID: 0}
    - target: {fileID: 7636562857672409274, guid: 4979dcc83c2765643856c4abeb960aa6, type: 3}
      propertyPath: m_LocalRotation.w
      value: 0.9860047
      objectReference: {fileID: 0}
    - target: {fileID: 7636562857672409274, guid: 4979dcc83c2765643856c4abeb960aa6, type: 3}
      propertyPath: m_LocalEulerAnglesHint.x
      value: 16.152
      objectReference: {fileID: 0}
    m_RemovedComponents: []
  m_SourcePrefab: {fileID: 100100000, guid: 4979dcc83c2765643856c4abeb960aa6, type: 3}
