%YAML 1.1
%TAG !u! tag:unity3d.com,2011:
--- !u!1001 &5828901676225366239
PrefabInstance:
  m_ObjectHideFlags: 0
  serializedVersion: 2
  m_Modification:
    m_TransformParent: {fileID: 0}
    m_Modifications:
    - target: {fileID: 3331015460486028253, guid: 245ac8b3fc694764e8b73a1892fadb19, type: 3}
      propertyPath: m_LocalPosition.x
      value: 0
      objectReference: {fileID: 0}
    - target: {fileID: 3331015460486028253, guid: 245ac8b3fc694764e8b73a1892fadb19, type: 3}
      propertyPath: m_LocalPosition.y
      value: 0
      objectReference: {fileID: 0}
    - target: {fileID: 3331015460486028253, guid: 245ac8b3fc694764e8b73a1892fadb19, type: 3}
      propertyPath: m_LocalPosition.z
      value: 0
      objectReference: {fileID: 0}
    - target: {fileID: 3331015460486028253, guid: 245ac8b3fc694764e8b73a1892fadb19, type: 3}
      propertyPath: m_LocalRotation.x
      value: -0
      objectReference: {fileID: 0}
    - target: {fileID: 3331015460486028253, guid: 245ac8b3fc694764e8b73a1892fadb19, type: 3}
      propertyPath: m_LocalRotation.y
      value: -0
      objectReference: {fileID: 0}
    - target: {fileID: 3331015460486028253, guid: 245ac8b3fc694764e8b73a1892fadb19, type: 3}
      propertyPath: m_LocalRotation.z
      value: -0
      objectReference: {fileID: 0}
    - target: {fileID: 3331015460486028253, guid: 245ac8b3fc694764e8b73a1892fadb19, type: 3}
      propertyPath: m_LocalRotation.w
      value: 1
      objectReference: {fileID: 0}
    - target: {fileID: 3331015460486028253, guid: 245ac8b3fc694764e8b73a1892fadb19, type: 3}
      propertyPath: m_RootOrder
      value: 0
      objectReference: {fileID: 0}
    - target: {fileID: 3331015460486028253, guid: 245ac8b3fc694764e8b73a1892fadb19, type: 3}
      propertyPath: m_LocalEulerAnglesHint.x
      value: 0
      objectReference: {fileID: 0}
    - target: {fileID: 3331015460486028253, guid: 245ac8b3fc694764e8b73a1892fadb19, type: 3}
      propertyPath: m_LocalEulerAnglesHint.y
      value: 0
      objectReference: {fileID: 0}
    - target: {fileID: 3331015460486028253, guid: 245ac8b3fc694764e8b73a1892fadb19, type: 3}
      propertyPath: m_LocalEulerAnglesHint.z
      value: 0
      objectReference: {fileID: 0}
    - target: {fileID: 3331015460486028253, guid: 245ac8b3fc694764e8b73a1892fadb19, type: 3}
      propertyPath: m_AnchoredPosition.x
      value: 0
      objectReference: {fileID: 0}
    - target: {fileID: 3331015460486028253, guid: 245ac8b3fc694764e8b73a1892fadb19, type: 3}
      propertyPath: m_AnchoredPosition.y
      value: 0
      objectReference: {fileID: 0}
    - target: {fileID: 3331015460486028253, guid: 245ac8b3fc694764e8b73a1892fadb19, type: 3}
      propertyPath: m_SizeDelta.x
      value: 5
      objectReference: {fileID: 0}
    - target: {fileID: 3331015460486028253, guid: 245ac8b3fc694764e8b73a1892fadb19, type: 3}
      propertyPath: m_SizeDelta.y
      value: 5
      objectReference: {fileID: 0}
    - target: {fileID: 3331015460486028253, guid: 245ac8b3fc694764e8b73a1892fadb19, type: 3}
      propertyPath: m_AnchorMin.x
      value: 0.5
      objectReference: {fileID: 0}
    - target: {fileID: 3331015460486028253, guid: 245ac8b3fc694764e8b73a1892fadb19, type: 3}
      propertyPath: m_AnchorMin.y
      value: 0.5
      objectReference: {fileID: 0}
    - target: {fileID: 3331015460486028253, guid: 245ac8b3fc694764e8b73a1892fadb19, type: 3}
      propertyPath: m_AnchorMax.x
      value: 0.5
      objectReference: {fileID: 0}
    - target: {fileID: 3331015460486028253, guid: 245ac8b3fc694764e8b73a1892fadb19, type: 3}
      propertyPath: m_AnchorMax.y
      value: 0.5
      objectReference: {fileID: 0}
    - target: {fileID: 3331015460486028253, guid: 245ac8b3fc694764e8b73a1892fadb19, type: 3}
      propertyPath: m_Pivot.x
      value: 0.5
      objectReference: {fileID: 0}
    - target: {fileID: 3331015460486028253, guid: 245ac8b3fc694764e8b73a1892fadb19, type: 3}
      propertyPath: m_Pivot.y
      value: 0.5
      objectReference: {fileID: 0}
    - target: {fileID: 8290870162002625185, guid: 245ac8b3fc694764e8b73a1892fadb19, type: 3}
      propertyPath: m_Name
      value: MinionMinimapIcon
      objectReference: {fileID: 0}
    - target: {fileID: 8428735381495077661, guid: 245ac8b3fc694764e8b73a1892fadb19, type: 3}
      propertyPath: m_Sprite
      value: 
      objectReference: {fileID: 10913, guid: 0000000000000000f000000000000000, type: 0}
    m_RemovedComponents: []
  m_SourcePrefab: {fileID: 100100000, guid: 245ac8b3fc694764e8b73a1892fadb19, type: 3}
