%YAML 1.1
%TAG !u! tag:unity3d.com,2011:
--- !u!1 &7467371571601965791
GameObject:
  m_ObjectHideFlags: 0
  m_CorrespondingSourceObject: {fileID: 0}
  m_PrefabInstance: {fileID: 0}
  m_PrefabAsset: {fileID: 0}
  serializedVersion: 6
  m_Component:
  - component: {fileID: 7467371571601965789}
  - component: {fileID: 7467371571601965788}
  m_Layer: 0
  m_Name: Nether Swap
  m_TagString: Untagged
  m_Icon: {fileID: 0}
  m_NavMeshLayer: 0
  m_StaticEditorFlags: 0
  m_IsActive: 1
--- !u!4 &7467371571601965789
Transform:
  m_ObjectHideFlags: 0
  m_CorrespondingSourceObject: {fileID: 0}
  m_PrefabInstance: {fileID: 0}
  m_PrefabAsset: {fileID: 0}
  m_GameObject: {fileID: 7467371571601965791}
  m_LocalRotation: {x: 0, y: 0, z: 0, w: 1}
  m_LocalPosition: {x: 70.95, y: 1.051166, z: 65.23}
  m_LocalScale: {x: 1, y: 1, z: 1}
  m_Children: []
  m_Father: {fileID: 0}
  m_RootOrder: 0
  m_LocalEulerAnglesHint: {x: 0, y: 0, z: 0}
--- !u!114 &7467371571601965788
MonoBehaviour:
  m_ObjectHideFlags: 0
  m_CorrespondingSourceObject: {fileID: 0}
  m_PrefabInstance: {fileID: 0}
  m_PrefabAsset: {fileID: 0}
  m_GameObject: {fileID: 7467371571601965791}
  m_Enabled: 1
  m_EditorHideFlags: 0
  m_Script: {fileID: 11500000, guid: a5d108fb30e712840825647c131d1926, type: 3}
  m_Name: 
  m_EditorClassIdentifier: 
  caster: {fileID: 0}
  rangeIndicator: {fileID: 1696264954119898, guid: 6ef25bd80f42895428b92874909a5630, type: 3}
  skillIcon: {fileID: 21300000, guid: 1d265a7c4699ff943975b0df18fd9735, type: 3}
  Activatable: 1
  targeting: 2
  affects: 0200000004000000
  damageType: 1
  CastRange: 7
  Damage: 0
  Cooldown: 45
  ManaCost: 100
  inCooldown: 0
  Unlocked: 0
  shootProjectile: {fileID: 0}
  effects: []
  CastRangeScaling:
  - 7
  - 8.5
  - 10
  ManaCostScaling:
  - 100
  - 150
  - 200
