%YAML 1.1
%TAG !u! tag:unity3d.com,2011:
--- !u!1 &3515769909638354570
GameObject:
  m_ObjectHideFlags: 0
  m_CorrespondingSourceObject: {fileID: 0}
  m_PrefabInstance: {fileID: 0}
  m_PrefabAsset: {fileID: 0}
  serializedVersion: 6
  m_Component:
  - component: {fileID: 3515769909638354568}
  - component: {fileID: 4229846833479814654}
  m_Layer: 0
  m_Name: Phantom Strike
  m_TagString: Untagged
  m_Icon: {fileID: 0}
  m_NavMeshLayer: 0
  m_StaticEditorFlags: 0
  m_IsActive: 1
--- !u!4 &3515769909638354568
Transform:
  m_ObjectHideFlags: 0
  m_CorrespondingSourceObject: {fileID: 0}
  m_PrefabInstance: {fileID: 0}
  m_PrefabAsset: {fileID: 0}
  m_GameObject: {fileID: 3515769909638354570}
  m_LocalRotation: {x: 0, y: 0, z: 0, w: 1}
  m_LocalPosition: {x: 70.95, y: 1.051166, z: 65.23}
  m_LocalScale: {x: 1, y: 1, z: 1}
  m_Children: []
  m_Father: {fileID: 0}
  m_RootOrder: 0
  m_LocalEulerAnglesHint: {x: 0, y: 0, z: 0}
--- !u!114 &4229846833479814654
MonoBehaviour:
  m_ObjectHideFlags: 0
  m_CorrespondingSourceObject: {fileID: 0}
  m_PrefabInstance: {fileID: 0}
  m_PrefabAsset: {fileID: 0}
  m_GameObject: {fileID: 3515769909638354570}
  m_Enabled: 1
  m_EditorHideFlags: 0
  m_Script: {fileID: 11500000, guid: 28dfd3a774e655d43afe27eb9b8052a0, type: 3}
  m_Name: 
  m_EditorClassIdentifier: 
  caster: {fileID: 0}
  rangeIndicator: {fileID: 1696264954119898, guid: 6ef25bd80f42895428b92874909a5630, type: 3}
  skillIcon: {fileID: 21300000, guid: 547a8ad56f4b2614d9df45f974f56352, type: 3}
  Activatable: 1
  targeting: 2
  affects: 0100000003000000
  damageType: 0
  CastRange: 10
  Damage: 0
  Cooldown: 0
  ManaCost: 0
  inCooldown: 0
  Unlocked: 0
  shootProjectile: {fileID: 0}
  effects:
  - {fileID: 6099797938425034172, guid: 4a2601e11759c484e8bfa49bde9cad35, type: 3}
  CastRangeScaling:
  - 0
  - 0
  - 0
  - 0
  AttackSpeedBonus:
  - 100
  - 125
  - 150
  - 175
  CooldownScaling:
  - 11
  - 9
  - 7
  - 5
  ManaCostScaling:
  - 35
  - 40
  - 45
  - 50
